%TF.GenerationSoftware,KiCad,Pcbnew,5.1.9-73d0e3b20d~88~ubuntu20.04.1*%
%TF.CreationDate,2021-03-24T09:35:10+01:00*%
%TF.ProjectId,PT100box,50543130-3062-46f7-982e-6b696361645f,rev?*%
%TF.SameCoordinates,Original*%
%TF.FileFunction,Legend,Bot*%
%TF.FilePolarity,Positive*%
%FSLAX46Y46*%
G04 Gerber Fmt 4.6, Leading zero omitted, Abs format (unit mm)*
G04 Created by KiCad (PCBNEW 5.1.9-73d0e3b20d~88~ubuntu20.04.1) date 2021-03-24 09:35:10*
%MOMM*%
%LPD*%
G01*
G04 APERTURE LIST*
%ADD10C,0.300000*%
G04 APERTURE END LIST*
D10*
X184590142Y-48547571D02*
X185447285Y-48547571D01*
X185018714Y-48547571D02*
X185018714Y-47047571D01*
X185161571Y-47261857D01*
X185304428Y-47404714D01*
X185447285Y-47476142D01*
X183304428Y-47047571D02*
X183590142Y-47047571D01*
X183733000Y-47119000D01*
X183804428Y-47190428D01*
X183947285Y-47404714D01*
X184018714Y-47690428D01*
X184018714Y-48261857D01*
X183947285Y-48404714D01*
X183875857Y-48476142D01*
X183733000Y-48547571D01*
X183447285Y-48547571D01*
X183304428Y-48476142D01*
X183233000Y-48404714D01*
X183161571Y-48261857D01*
X183161571Y-47904714D01*
X183233000Y-47761857D01*
X183304428Y-47690428D01*
X183447285Y-47619000D01*
X183733000Y-47619000D01*
X183875857Y-47690428D01*
X183947285Y-47761857D01*
X184018714Y-47904714D01*
X182661571Y-48547571D02*
X181875857Y-47547571D01*
X182661571Y-47547571D02*
X181875857Y-48547571D01*
X179518714Y-47547571D02*
X179518714Y-48547571D01*
X179875857Y-46976142D02*
X180233000Y-48047571D01*
X179304428Y-48047571D01*
X178733000Y-47976142D02*
X177590142Y-47976142D01*
X177018714Y-47547571D02*
X176733000Y-48547571D01*
X176447285Y-47833285D01*
X176161571Y-48547571D01*
X175875857Y-47547571D01*
X175304428Y-48547571D02*
X175304428Y-47547571D01*
X175304428Y-47047571D02*
X175375857Y-47119000D01*
X175304428Y-47190428D01*
X175233000Y-47119000D01*
X175304428Y-47047571D01*
X175304428Y-47190428D01*
X174590142Y-48547571D02*
X174590142Y-47547571D01*
X174590142Y-47833285D02*
X174518714Y-47690428D01*
X174447285Y-47619000D01*
X174304428Y-47547571D01*
X174161571Y-47547571D01*
X173090142Y-48476142D02*
X173233000Y-48547571D01*
X173518714Y-48547571D01*
X173661571Y-48476142D01*
X173733000Y-48333285D01*
X173733000Y-47761857D01*
X173661571Y-47619000D01*
X173518714Y-47547571D01*
X173233000Y-47547571D01*
X173090142Y-47619000D01*
X173018714Y-47761857D01*
X173018714Y-47904714D01*
X173733000Y-48047571D01*
X171233000Y-48547571D02*
X171233000Y-47047571D01*
X170661571Y-47047571D01*
X170518714Y-47119000D01*
X170447285Y-47190428D01*
X170375857Y-47333285D01*
X170375857Y-47547571D01*
X170447285Y-47690428D01*
X170518714Y-47761857D01*
X170661571Y-47833285D01*
X171233000Y-47833285D01*
X169947285Y-47047571D02*
X169090142Y-47047571D01*
X169518714Y-48547571D02*
X169518714Y-47047571D01*
X167804428Y-48547571D02*
X168661571Y-48547571D01*
X168233000Y-48547571D02*
X168233000Y-47047571D01*
X168375857Y-47261857D01*
X168518714Y-47404714D01*
X168661571Y-47476142D01*
X166875857Y-47047571D02*
X166733000Y-47047571D01*
X166590142Y-47119000D01*
X166518714Y-47190428D01*
X166447285Y-47333285D01*
X166375857Y-47619000D01*
X166375857Y-47976142D01*
X166447285Y-48261857D01*
X166518714Y-48404714D01*
X166590142Y-48476142D01*
X166733000Y-48547571D01*
X166875857Y-48547571D01*
X167018714Y-48476142D01*
X167090142Y-48404714D01*
X167161571Y-48261857D01*
X167233000Y-47976142D01*
X167233000Y-47619000D01*
X167161571Y-47333285D01*
X167090142Y-47190428D01*
X167018714Y-47119000D01*
X166875857Y-47047571D01*
X165447285Y-47047571D02*
X165304428Y-47047571D01*
X165161571Y-47119000D01*
X165090142Y-47190428D01*
X165018714Y-47333285D01*
X164947285Y-47619000D01*
X164947285Y-47976142D01*
X165018714Y-48261857D01*
X165090142Y-48404714D01*
X165161571Y-48476142D01*
X165304428Y-48547571D01*
X165447285Y-48547571D01*
X165590142Y-48476142D01*
X165661571Y-48404714D01*
X165733000Y-48261857D01*
X165804428Y-47976142D01*
X165804428Y-47619000D01*
X165733000Y-47333285D01*
X165661571Y-47190428D01*
X165590142Y-47119000D01*
X165447285Y-47047571D01*
X163161571Y-48547571D02*
X163161571Y-47047571D01*
X163161571Y-47619000D02*
X163018714Y-47547571D01*
X162733000Y-47547571D01*
X162590142Y-47619000D01*
X162518714Y-47690428D01*
X162447285Y-47833285D01*
X162447285Y-48261857D01*
X162518714Y-48404714D01*
X162590142Y-48476142D01*
X162733000Y-48547571D01*
X163018714Y-48547571D01*
X163161571Y-48476142D01*
X161590142Y-48547571D02*
X161733000Y-48476142D01*
X161804428Y-48404714D01*
X161875857Y-48261857D01*
X161875857Y-47833285D01*
X161804428Y-47690428D01*
X161733000Y-47619000D01*
X161590142Y-47547571D01*
X161375857Y-47547571D01*
X161233000Y-47619000D01*
X161161571Y-47690428D01*
X161090142Y-47833285D01*
X161090142Y-48261857D01*
X161161571Y-48404714D01*
X161233000Y-48476142D01*
X161375857Y-48547571D01*
X161590142Y-48547571D01*
X159804428Y-48547571D02*
X159804428Y-47761857D01*
X159875857Y-47619000D01*
X160018714Y-47547571D01*
X160304428Y-47547571D01*
X160447285Y-47619000D01*
X159804428Y-48476142D02*
X159947285Y-48547571D01*
X160304428Y-48547571D01*
X160447285Y-48476142D01*
X160518714Y-48333285D01*
X160518714Y-48190428D01*
X160447285Y-48047571D01*
X160304428Y-47976142D01*
X159947285Y-47976142D01*
X159804428Y-47904714D01*
X159090142Y-48547571D02*
X159090142Y-47547571D01*
X159090142Y-47833285D02*
X159018714Y-47690428D01*
X158947285Y-47619000D01*
X158804428Y-47547571D01*
X158661571Y-47547571D01*
X157518714Y-48547571D02*
X157518714Y-47047571D01*
X157518714Y-48476142D02*
X157661571Y-48547571D01*
X157947285Y-48547571D01*
X158090142Y-48476142D01*
X158161571Y-48404714D01*
X158233000Y-48261857D01*
X158233000Y-47833285D01*
X158161571Y-47690428D01*
X158090142Y-47619000D01*
X157947285Y-47547571D01*
X157661571Y-47547571D01*
X157518714Y-47619000D01*
X184518714Y-51097571D02*
X185018714Y-50383285D01*
X185375857Y-51097571D02*
X185375857Y-49597571D01*
X184804428Y-49597571D01*
X184661571Y-49669000D01*
X184590142Y-49740428D01*
X184518714Y-49883285D01*
X184518714Y-50097571D01*
X184590142Y-50240428D01*
X184661571Y-50311857D01*
X184804428Y-50383285D01*
X185375857Y-50383285D01*
X183304428Y-51026142D02*
X183447285Y-51097571D01*
X183733000Y-51097571D01*
X183875857Y-51026142D01*
X183947285Y-50883285D01*
X183947285Y-50311857D01*
X183875857Y-50169000D01*
X183733000Y-50097571D01*
X183447285Y-50097571D01*
X183304428Y-50169000D01*
X183233000Y-50311857D01*
X183233000Y-50454714D01*
X183947285Y-50597571D01*
X182733000Y-50097571D02*
X182375857Y-51097571D01*
X182018714Y-50097571D01*
X179518714Y-51097571D02*
X180375857Y-51097571D01*
X179947285Y-51097571D02*
X179947285Y-49597571D01*
X180090142Y-49811857D01*
X180233000Y-49954714D01*
X180375857Y-50026142D01*
X178875857Y-50954714D02*
X178804428Y-51026142D01*
X178875857Y-51097571D01*
X178947285Y-51026142D01*
X178875857Y-50954714D01*
X178875857Y-51097571D01*
X177375857Y-51097571D02*
X178233000Y-51097571D01*
X177804428Y-51097571D02*
X177804428Y-49597571D01*
X177947285Y-49811857D01*
X178090142Y-49954714D01*
X178233000Y-50026142D01*
X185590142Y-52647571D02*
X185018714Y-52647571D01*
X185375857Y-53647571D02*
X185375857Y-52361857D01*
X185304428Y-52219000D01*
X185161571Y-52147571D01*
X185018714Y-52147571D01*
X184304428Y-53647571D02*
X184447285Y-53576142D01*
X184518714Y-53504714D01*
X184590142Y-53361857D01*
X184590142Y-52933285D01*
X184518714Y-52790428D01*
X184447285Y-52719000D01*
X184304428Y-52647571D01*
X184090142Y-52647571D01*
X183947285Y-52719000D01*
X183875857Y-52790428D01*
X183804428Y-52933285D01*
X183804428Y-53361857D01*
X183875857Y-53504714D01*
X183947285Y-53576142D01*
X184090142Y-53647571D01*
X184304428Y-53647571D01*
X183161571Y-53647571D02*
X183161571Y-52647571D01*
X183161571Y-52933285D02*
X183090142Y-52790428D01*
X183018714Y-52719000D01*
X182875857Y-52647571D01*
X182733000Y-52647571D01*
X181090142Y-53647571D02*
X181090142Y-52147571D01*
X180590142Y-53219000D01*
X180090142Y-52147571D01*
X180090142Y-53647571D01*
X179161571Y-53647571D02*
X179304428Y-53576142D01*
X179375857Y-53504714D01*
X179447285Y-53361857D01*
X179447285Y-52933285D01*
X179375857Y-52790428D01*
X179304428Y-52719000D01*
X179161571Y-52647571D01*
X178947285Y-52647571D01*
X178804428Y-52719000D01*
X178733000Y-52790428D01*
X178661571Y-52933285D01*
X178661571Y-53361857D01*
X178733000Y-53504714D01*
X178804428Y-53576142D01*
X178947285Y-53647571D01*
X179161571Y-53647571D01*
X178018714Y-53647571D02*
X178018714Y-52147571D01*
X178018714Y-52719000D02*
X177875857Y-52647571D01*
X177590142Y-52647571D01*
X177447285Y-52719000D01*
X177375857Y-52790428D01*
X177304428Y-52933285D01*
X177304428Y-53361857D01*
X177375857Y-53504714D01*
X177447285Y-53576142D01*
X177590142Y-53647571D01*
X177875857Y-53647571D01*
X178018714Y-53576142D01*
X176661571Y-53647571D02*
X176661571Y-52647571D01*
X176661571Y-52147571D02*
X176733000Y-52219000D01*
X176661571Y-52290428D01*
X176590142Y-52219000D01*
X176661571Y-52147571D01*
X176661571Y-52290428D01*
X175733000Y-53647571D02*
X175875857Y-53576142D01*
X175947285Y-53433285D01*
X175947285Y-52147571D01*
X174590142Y-53576142D02*
X174733000Y-53647571D01*
X175018714Y-53647571D01*
X175161571Y-53576142D01*
X175233000Y-53433285D01*
X175233000Y-52861857D01*
X175161571Y-52719000D01*
X175018714Y-52647571D01*
X174733000Y-52647571D01*
X174590142Y-52719000D01*
X174518714Y-52861857D01*
X174518714Y-53004714D01*
X175233000Y-53147571D01*
X172733000Y-53647571D02*
X172733000Y-52147571D01*
X172233000Y-53219000D01*
X171733000Y-52147571D01*
X171733000Y-53647571D01*
X170447285Y-53576142D02*
X170590142Y-53647571D01*
X170875857Y-53647571D01*
X171018714Y-53576142D01*
X171090142Y-53433285D01*
X171090142Y-52861857D01*
X171018714Y-52719000D01*
X170875857Y-52647571D01*
X170590142Y-52647571D01*
X170447285Y-52719000D01*
X170375857Y-52861857D01*
X170375857Y-53004714D01*
X171090142Y-53147571D01*
X169090142Y-53647571D02*
X169090142Y-52861857D01*
X169161571Y-52719000D01*
X169304428Y-52647571D01*
X169590142Y-52647571D01*
X169733000Y-52719000D01*
X169090142Y-53576142D02*
X169233000Y-53647571D01*
X169590142Y-53647571D01*
X169733000Y-53576142D01*
X169804428Y-53433285D01*
X169804428Y-53290428D01*
X169733000Y-53147571D01*
X169590142Y-53076142D01*
X169233000Y-53076142D01*
X169090142Y-53004714D01*
X168447285Y-53576142D02*
X168304428Y-53647571D01*
X168018714Y-53647571D01*
X167875857Y-53576142D01*
X167804428Y-53433285D01*
X167804428Y-53361857D01*
X167875857Y-53219000D01*
X168018714Y-53147571D01*
X168233000Y-53147571D01*
X168375857Y-53076142D01*
X168447285Y-52933285D01*
X168447285Y-52861857D01*
X168375857Y-52719000D01*
X168233000Y-52647571D01*
X168018714Y-52647571D01*
X167875857Y-52719000D01*
X166518714Y-52647571D02*
X166518714Y-53647571D01*
X167161571Y-52647571D02*
X167161571Y-53433285D01*
X167090142Y-53576142D01*
X166947285Y-53647571D01*
X166733000Y-53647571D01*
X166590142Y-53576142D01*
X166518714Y-53504714D01*
X165804428Y-53647571D02*
X165804428Y-52647571D01*
X165804428Y-52933285D02*
X165733000Y-52790428D01*
X165661571Y-52719000D01*
X165518714Y-52647571D01*
X165375857Y-52647571D01*
X164304428Y-53576142D02*
X164447285Y-53647571D01*
X164733000Y-53647571D01*
X164875857Y-53576142D01*
X164947285Y-53433285D01*
X164947285Y-52861857D01*
X164875857Y-52719000D01*
X164733000Y-52647571D01*
X164447285Y-52647571D01*
X164304428Y-52719000D01*
X164233000Y-52861857D01*
X164233000Y-53004714D01*
X164947285Y-53147571D01*
X163590142Y-53647571D02*
X163590142Y-52647571D01*
X163590142Y-52790428D02*
X163518714Y-52719000D01*
X163375857Y-52647571D01*
X163161571Y-52647571D01*
X163018714Y-52719000D01*
X162947285Y-52861857D01*
X162947285Y-53647571D01*
X162947285Y-52861857D02*
X162875857Y-52719000D01*
X162733000Y-52647571D01*
X162518714Y-52647571D01*
X162375857Y-52719000D01*
X162304428Y-52861857D01*
X162304428Y-53647571D01*
X161018714Y-53576142D02*
X161161571Y-53647571D01*
X161447285Y-53647571D01*
X161590142Y-53576142D01*
X161661571Y-53433285D01*
X161661571Y-52861857D01*
X161590142Y-52719000D01*
X161447285Y-52647571D01*
X161161571Y-52647571D01*
X161018714Y-52719000D01*
X160947285Y-52861857D01*
X160947285Y-53004714D01*
X161661571Y-53147571D01*
X160304428Y-52647571D02*
X160304428Y-53647571D01*
X160304428Y-52790428D02*
X160233000Y-52719000D01*
X160090142Y-52647571D01*
X159875857Y-52647571D01*
X159733000Y-52719000D01*
X159661571Y-52861857D01*
X159661571Y-53647571D01*
X159161571Y-52647571D02*
X158590142Y-52647571D01*
X158947285Y-52147571D02*
X158947285Y-53433285D01*
X158875857Y-53576142D01*
X158733000Y-53647571D01*
X158590142Y-53647571D01*
X157018714Y-53576142D02*
X156804428Y-53647571D01*
X156447285Y-53647571D01*
X156304428Y-53576142D01*
X156233000Y-53504714D01*
X156161571Y-53361857D01*
X156161571Y-53219000D01*
X156233000Y-53076142D01*
X156304428Y-53004714D01*
X156447285Y-52933285D01*
X156733000Y-52861857D01*
X156875857Y-52790428D01*
X156947285Y-52719000D01*
X157018714Y-52576142D01*
X157018714Y-52433285D01*
X156947285Y-52290428D01*
X156875857Y-52219000D01*
X156733000Y-52147571D01*
X156375857Y-52147571D01*
X156161571Y-52219000D01*
X155661571Y-52647571D02*
X155304428Y-53647571D01*
X154947285Y-52647571D02*
X155304428Y-53647571D01*
X155447285Y-54004714D01*
X155518714Y-54076142D01*
X155661571Y-54147571D01*
X154447285Y-53576142D02*
X154304428Y-53647571D01*
X154018714Y-53647571D01*
X153875857Y-53576142D01*
X153804428Y-53433285D01*
X153804428Y-53361857D01*
X153875857Y-53219000D01*
X154018714Y-53147571D01*
X154233000Y-53147571D01*
X154375857Y-53076142D01*
X154447285Y-52933285D01*
X154447285Y-52861857D01*
X154375857Y-52719000D01*
X154233000Y-52647571D01*
X154018714Y-52647571D01*
X153875857Y-52719000D01*
X153375857Y-52647571D02*
X152804428Y-52647571D01*
X153161571Y-52147571D02*
X153161571Y-53433285D01*
X153090142Y-53576142D01*
X152947285Y-53647571D01*
X152804428Y-53647571D01*
X151733000Y-53576142D02*
X151875857Y-53647571D01*
X152161571Y-53647571D01*
X152304428Y-53576142D01*
X152375857Y-53433285D01*
X152375857Y-52861857D01*
X152304428Y-52719000D01*
X152161571Y-52647571D01*
X151875857Y-52647571D01*
X151733000Y-52719000D01*
X151661571Y-52861857D01*
X151661571Y-53004714D01*
X152375857Y-53147571D01*
X151018714Y-53647571D02*
X151018714Y-52647571D01*
X151018714Y-52790428D02*
X150947285Y-52719000D01*
X150804428Y-52647571D01*
X150590142Y-52647571D01*
X150447285Y-52719000D01*
X150375857Y-52861857D01*
X150375857Y-53647571D01*
X150375857Y-52861857D02*
X150304428Y-52719000D01*
X150161571Y-52647571D01*
X149947285Y-52647571D01*
X149804428Y-52719000D01*
X149733000Y-52861857D01*
X149733000Y-53647571D01*
X164115714Y-103675571D02*
X164972857Y-103675571D01*
X164544285Y-103675571D02*
X164544285Y-102175571D01*
X164687142Y-102389857D01*
X164830000Y-102532714D01*
X164972857Y-102604142D01*
X162830000Y-102175571D02*
X163115714Y-102175571D01*
X163258571Y-102247000D01*
X163330000Y-102318428D01*
X163472857Y-102532714D01*
X163544285Y-102818428D01*
X163544285Y-103389857D01*
X163472857Y-103532714D01*
X163401428Y-103604142D01*
X163258571Y-103675571D01*
X162972857Y-103675571D01*
X162830000Y-103604142D01*
X162758571Y-103532714D01*
X162687142Y-103389857D01*
X162687142Y-103032714D01*
X162758571Y-102889857D01*
X162830000Y-102818428D01*
X162972857Y-102747000D01*
X163258571Y-102747000D01*
X163401428Y-102818428D01*
X163472857Y-102889857D01*
X163544285Y-103032714D01*
X139096714Y-103548571D02*
X139953857Y-103548571D01*
X139525285Y-103548571D02*
X139525285Y-102048571D01*
X139668142Y-102262857D01*
X139811000Y-102405714D01*
X139953857Y-102477142D01*
X137739571Y-102048571D02*
X138453857Y-102048571D01*
X138525285Y-102762857D01*
X138453857Y-102691428D01*
X138311000Y-102620000D01*
X137953857Y-102620000D01*
X137811000Y-102691428D01*
X137739571Y-102762857D01*
X137668142Y-102905714D01*
X137668142Y-103262857D01*
X137739571Y-103405714D01*
X137811000Y-103477142D01*
X137953857Y-103548571D01*
X138311000Y-103548571D01*
X138453857Y-103477142D01*
X138525285Y-103405714D01*
X88804714Y-103548571D02*
X89661857Y-103548571D01*
X89233285Y-103548571D02*
X89233285Y-102048571D01*
X89376142Y-102262857D01*
X89519000Y-102405714D01*
X89661857Y-102477142D01*
X87519000Y-102548571D02*
X87519000Y-103548571D01*
X87876142Y-101977142D02*
X88233285Y-103048571D01*
X87304714Y-103048571D01*
X64039714Y-103675571D02*
X64896857Y-103675571D01*
X64468285Y-103675571D02*
X64468285Y-102175571D01*
X64611142Y-102389857D01*
X64754000Y-102532714D01*
X64896857Y-102604142D01*
X63539714Y-102175571D02*
X62611142Y-102175571D01*
X63111142Y-102747000D01*
X62896857Y-102747000D01*
X62754000Y-102818428D01*
X62682571Y-102889857D01*
X62611142Y-103032714D01*
X62611142Y-103389857D01*
X62682571Y-103532714D01*
X62754000Y-103604142D01*
X62896857Y-103675571D01*
X63325428Y-103675571D01*
X63468285Y-103604142D01*
X63539714Y-103532714D01*
X163988714Y-88689571D02*
X164845857Y-88689571D01*
X164417285Y-88689571D02*
X164417285Y-87189571D01*
X164560142Y-87403857D01*
X164703000Y-87546714D01*
X164845857Y-87618142D01*
X163417285Y-87332428D02*
X163345857Y-87261000D01*
X163203000Y-87189571D01*
X162845857Y-87189571D01*
X162703000Y-87261000D01*
X162631571Y-87332428D01*
X162560142Y-87475285D01*
X162560142Y-87618142D01*
X162631571Y-87832428D01*
X163488714Y-88689571D01*
X162560142Y-88689571D01*
X139096714Y-88689571D02*
X139953857Y-88689571D01*
X139525285Y-88689571D02*
X139525285Y-87189571D01*
X139668142Y-87403857D01*
X139811000Y-87546714D01*
X139953857Y-87618142D01*
X137668142Y-88689571D02*
X138525285Y-88689571D01*
X138096714Y-88689571D02*
X138096714Y-87189571D01*
X138239571Y-87403857D01*
X138382428Y-87546714D01*
X138525285Y-87618142D01*
X88931714Y-88689571D02*
X89788857Y-88689571D01*
X89360285Y-88689571D02*
X89360285Y-87189571D01*
X89503142Y-87403857D01*
X89646000Y-87546714D01*
X89788857Y-87618142D01*
X88003142Y-87189571D02*
X87860285Y-87189571D01*
X87717428Y-87261000D01*
X87646000Y-87332428D01*
X87574571Y-87475285D01*
X87503142Y-87761000D01*
X87503142Y-88118142D01*
X87574571Y-88403857D01*
X87646000Y-88546714D01*
X87717428Y-88618142D01*
X87860285Y-88689571D01*
X88003142Y-88689571D01*
X88146000Y-88618142D01*
X88217428Y-88546714D01*
X88288857Y-88403857D01*
X88360285Y-88118142D01*
X88360285Y-87761000D01*
X88288857Y-87475285D01*
X88217428Y-87332428D01*
X88146000Y-87261000D01*
X88003142Y-87189571D01*
X64166714Y-88689571D02*
X63881000Y-88689571D01*
X63738142Y-88618142D01*
X63666714Y-88546714D01*
X63523857Y-88332428D01*
X63452428Y-88046714D01*
X63452428Y-87475285D01*
X63523857Y-87332428D01*
X63595285Y-87261000D01*
X63738142Y-87189571D01*
X64023857Y-87189571D01*
X64166714Y-87261000D01*
X64238142Y-87332428D01*
X64309571Y-87475285D01*
X64309571Y-87832428D01*
X64238142Y-87975285D01*
X64166714Y-88046714D01*
X64023857Y-88118142D01*
X63738142Y-88118142D01*
X63595285Y-88046714D01*
X63523857Y-87975285D01*
X63452428Y-87832428D01*
X164226857Y-72846428D02*
X164369714Y-72775000D01*
X164441142Y-72703571D01*
X164512571Y-72560714D01*
X164512571Y-72489285D01*
X164441142Y-72346428D01*
X164369714Y-72275000D01*
X164226857Y-72203571D01*
X163941142Y-72203571D01*
X163798285Y-72275000D01*
X163726857Y-72346428D01*
X163655428Y-72489285D01*
X163655428Y-72560714D01*
X163726857Y-72703571D01*
X163798285Y-72775000D01*
X163941142Y-72846428D01*
X164226857Y-72846428D01*
X164369714Y-72917857D01*
X164441142Y-72989285D01*
X164512571Y-73132142D01*
X164512571Y-73417857D01*
X164441142Y-73560714D01*
X164369714Y-73632142D01*
X164226857Y-73703571D01*
X163941142Y-73703571D01*
X163798285Y-73632142D01*
X163726857Y-73560714D01*
X163655428Y-73417857D01*
X163655428Y-73132142D01*
X163726857Y-72989285D01*
X163798285Y-72917857D01*
X163941142Y-72846428D01*
X139565000Y-72330571D02*
X138565000Y-72330571D01*
X139207857Y-73830571D01*
X88614285Y-72076571D02*
X88900000Y-72076571D01*
X89042857Y-72148000D01*
X89114285Y-72219428D01*
X89257142Y-72433714D01*
X89328571Y-72719428D01*
X89328571Y-73290857D01*
X89257142Y-73433714D01*
X89185714Y-73505142D01*
X89042857Y-73576571D01*
X88757142Y-73576571D01*
X88614285Y-73505142D01*
X88542857Y-73433714D01*
X88471428Y-73290857D01*
X88471428Y-72933714D01*
X88542857Y-72790857D01*
X88614285Y-72719428D01*
X88757142Y-72648000D01*
X89042857Y-72648000D01*
X89185714Y-72719428D01*
X89257142Y-72790857D01*
X89328571Y-72933714D01*
X63523857Y-72203571D02*
X64238142Y-72203571D01*
X64309571Y-72917857D01*
X64238142Y-72846428D01*
X64095285Y-72775000D01*
X63738142Y-72775000D01*
X63595285Y-72846428D01*
X63523857Y-72917857D01*
X63452428Y-73060714D01*
X63452428Y-73417857D01*
X63523857Y-73560714D01*
X63595285Y-73632142D01*
X63738142Y-73703571D01*
X64095285Y-73703571D01*
X64238142Y-73632142D01*
X64309571Y-73560714D01*
X163544285Y-57590571D02*
X163544285Y-58590571D01*
X163901428Y-57019142D02*
X164258571Y-58090571D01*
X163330000Y-58090571D01*
X139311000Y-57090571D02*
X138382428Y-57090571D01*
X138882428Y-57662000D01*
X138668142Y-57662000D01*
X138525285Y-57733428D01*
X138453857Y-57804857D01*
X138382428Y-57947714D01*
X138382428Y-58304857D01*
X138453857Y-58447714D01*
X138525285Y-58519142D01*
X138668142Y-58590571D01*
X139096714Y-58590571D01*
X139239571Y-58519142D01*
X139311000Y-58447714D01*
X89201571Y-57360428D02*
X89130142Y-57289000D01*
X88987285Y-57217571D01*
X88630142Y-57217571D01*
X88487285Y-57289000D01*
X88415857Y-57360428D01*
X88344428Y-57503285D01*
X88344428Y-57646142D01*
X88415857Y-57860428D01*
X89273000Y-58717571D01*
X88344428Y-58717571D01*
X63071428Y-58590571D02*
X63928571Y-58590571D01*
X63500000Y-58590571D02*
X63500000Y-57090571D01*
X63642857Y-57304857D01*
X63785714Y-57447714D01*
X63928571Y-57519142D01*
X187041428Y-111041571D02*
X187041428Y-109541571D01*
X186898571Y-110470142D02*
X186470000Y-111041571D01*
X186470000Y-110041571D02*
X187041428Y-110613000D01*
X185612857Y-111041571D02*
X185755714Y-110970142D01*
X185827142Y-110898714D01*
X185898571Y-110755857D01*
X185898571Y-110327285D01*
X185827142Y-110184428D01*
X185755714Y-110113000D01*
X185612857Y-110041571D01*
X185398571Y-110041571D01*
X185255714Y-110113000D01*
X185184285Y-110184428D01*
X185112857Y-110327285D01*
X185112857Y-110755857D01*
X185184285Y-110898714D01*
X185255714Y-110970142D01*
X185398571Y-111041571D01*
X185612857Y-111041571D01*
X184470000Y-110041571D02*
X184470000Y-111041571D01*
X184470000Y-110184428D02*
X184398571Y-110113000D01*
X184255714Y-110041571D01*
X184041428Y-110041571D01*
X183898571Y-110113000D01*
X183827142Y-110255857D01*
X183827142Y-111041571D01*
X183184285Y-110970142D02*
X183041428Y-111041571D01*
X182755714Y-111041571D01*
X182612857Y-110970142D01*
X182541428Y-110827285D01*
X182541428Y-110755857D01*
X182612857Y-110613000D01*
X182755714Y-110541571D01*
X182970000Y-110541571D01*
X183112857Y-110470142D01*
X183184285Y-110327285D01*
X183184285Y-110255857D01*
X183112857Y-110113000D01*
X182970000Y-110041571D01*
X182755714Y-110041571D01*
X182612857Y-110113000D01*
X182112857Y-110041571D02*
X181541428Y-110041571D01*
X181898571Y-109541571D02*
X181898571Y-110827285D01*
X181827142Y-110970142D01*
X181684285Y-111041571D01*
X181541428Y-111041571D01*
X180398571Y-111041571D02*
X180398571Y-110255857D01*
X180470000Y-110113000D01*
X180612857Y-110041571D01*
X180898571Y-110041571D01*
X181041428Y-110113000D01*
X180398571Y-110970142D02*
X180541428Y-111041571D01*
X180898571Y-111041571D01*
X181041428Y-110970142D01*
X181112857Y-110827285D01*
X181112857Y-110684428D01*
X181041428Y-110541571D01*
X180898571Y-110470142D01*
X180541428Y-110470142D01*
X180398571Y-110398714D01*
X179684285Y-110041571D02*
X179684285Y-111041571D01*
X179684285Y-110184428D02*
X179612857Y-110113000D01*
X179470000Y-110041571D01*
X179255714Y-110041571D01*
X179112857Y-110113000D01*
X179041428Y-110255857D01*
X179041428Y-111041571D01*
X178541428Y-110041571D02*
X177970000Y-110041571D01*
X178327142Y-109541571D02*
X178327142Y-110827285D01*
X178255714Y-110970142D01*
X178112857Y-111041571D01*
X177970000Y-111041571D01*
X177470000Y-111041571D02*
X177470000Y-110041571D01*
X177470000Y-109541571D02*
X177541428Y-109613000D01*
X177470000Y-109684428D01*
X177398571Y-109613000D01*
X177470000Y-109541571D01*
X177470000Y-109684428D01*
X176755714Y-110041571D02*
X176755714Y-111041571D01*
X176755714Y-110184428D02*
X176684285Y-110113000D01*
X176541428Y-110041571D01*
X176327142Y-110041571D01*
X176184285Y-110113000D01*
X176112857Y-110255857D01*
X176112857Y-111041571D01*
X175398571Y-110898714D02*
X175327142Y-110970142D01*
X175398571Y-111041571D01*
X175470000Y-110970142D01*
X175398571Y-110898714D01*
X175398571Y-111041571D01*
X174684285Y-110041571D02*
X174684285Y-111041571D01*
X174684285Y-110184428D02*
X174612857Y-110113000D01*
X174470000Y-110041571D01*
X174255714Y-110041571D01*
X174112857Y-110113000D01*
X174041428Y-110255857D01*
X174041428Y-111041571D01*
X173327142Y-111041571D02*
X173327142Y-110041571D01*
X173327142Y-109541571D02*
X173398571Y-109613000D01*
X173327142Y-109684428D01*
X173255714Y-109613000D01*
X173327142Y-109541571D01*
X173327142Y-109684428D01*
X172041428Y-110970142D02*
X172184285Y-111041571D01*
X172470000Y-111041571D01*
X172612857Y-110970142D01*
X172684285Y-110827285D01*
X172684285Y-110255857D01*
X172612857Y-110113000D01*
X172470000Y-110041571D01*
X172184285Y-110041571D01*
X172041428Y-110113000D01*
X171970000Y-110255857D01*
X171970000Y-110398714D01*
X172684285Y-110541571D01*
X171327142Y-111041571D02*
X171327142Y-109541571D01*
X170684285Y-111041571D02*
X170684285Y-110255857D01*
X170755714Y-110113000D01*
X170898571Y-110041571D01*
X171112857Y-110041571D01*
X171255714Y-110113000D01*
X171327142Y-110184428D01*
X169327142Y-111041571D02*
X169327142Y-110255857D01*
X169398571Y-110113000D01*
X169541428Y-110041571D01*
X169827142Y-110041571D01*
X169970000Y-110113000D01*
X169327142Y-110970142D02*
X169470000Y-111041571D01*
X169827142Y-111041571D01*
X169970000Y-110970142D01*
X170041428Y-110827285D01*
X170041428Y-110684428D01*
X169970000Y-110541571D01*
X169827142Y-110470142D01*
X169470000Y-110470142D01*
X169327142Y-110398714D01*
X167970000Y-110041571D02*
X167970000Y-111041571D01*
X168612857Y-110041571D02*
X168612857Y-110827285D01*
X168541428Y-110970142D01*
X168398571Y-111041571D01*
X168184285Y-111041571D01*
X168041428Y-110970142D01*
X167970000Y-110898714D01*
X167327142Y-110970142D02*
X167184285Y-111041571D01*
X166898571Y-111041571D01*
X166755714Y-110970142D01*
X166684285Y-110827285D01*
X166684285Y-110755857D01*
X166755714Y-110613000D01*
X166898571Y-110541571D01*
X167112857Y-110541571D01*
X167255714Y-110470142D01*
X167327142Y-110327285D01*
X167327142Y-110255857D01*
X167255714Y-110113000D01*
X167112857Y-110041571D01*
X166898571Y-110041571D01*
X166755714Y-110113000D01*
X165112857Y-110327285D02*
X165184285Y-110255857D01*
X165327142Y-110184428D01*
X165470000Y-110184428D01*
X165612857Y-110255857D01*
X165684285Y-110327285D01*
X165755714Y-110470142D01*
X165755714Y-110613000D01*
X165684285Y-110755857D01*
X165612857Y-110827285D01*
X165470000Y-110898714D01*
X165327142Y-110898714D01*
X165184285Y-110827285D01*
X165112857Y-110755857D01*
X165112857Y-110184428D02*
X165112857Y-110755857D01*
X165041428Y-110827285D01*
X164970000Y-110827285D01*
X164827142Y-110755857D01*
X164755714Y-110613000D01*
X164755714Y-110255857D01*
X164898571Y-110041571D01*
X165112857Y-109898714D01*
X165398571Y-109827285D01*
X165684285Y-109898714D01*
X165898571Y-110041571D01*
X166041428Y-110255857D01*
X166112857Y-110541571D01*
X166041428Y-110827285D01*
X165898571Y-111041571D01*
X165684285Y-111184428D01*
X165398571Y-111255857D01*
X165112857Y-111184428D01*
X164898571Y-111041571D01*
X163470000Y-111041571D02*
X163470000Y-109541571D01*
X163470000Y-110970142D02*
X163612857Y-111041571D01*
X163898571Y-111041571D01*
X164041428Y-110970142D01*
X164112857Y-110898714D01*
X164184285Y-110755857D01*
X164184285Y-110327285D01*
X164112857Y-110184428D01*
X164041428Y-110113000D01*
X163898571Y-110041571D01*
X163612857Y-110041571D01*
X163470000Y-110113000D01*
X162541428Y-111041571D02*
X162684285Y-110970142D01*
X162755714Y-110827285D01*
X162755714Y-109541571D01*
X161970000Y-111041571D02*
X161970000Y-110041571D01*
X161970000Y-110327285D02*
X161898571Y-110184428D01*
X161827142Y-110113000D01*
X161684285Y-110041571D01*
X161541428Y-110041571D01*
X161041428Y-110898714D02*
X160970000Y-110970142D01*
X161041428Y-111041571D01*
X161112857Y-110970142D01*
X161041428Y-110898714D01*
X161041428Y-111041571D01*
X159684285Y-111041571D02*
X159684285Y-109541571D01*
X159684285Y-110970142D02*
X159827142Y-111041571D01*
X160112857Y-111041571D01*
X160255714Y-110970142D01*
X160327142Y-110898714D01*
X160398571Y-110755857D01*
X160398571Y-110327285D01*
X160327142Y-110184428D01*
X160255714Y-110113000D01*
X160112857Y-110041571D01*
X159827142Y-110041571D01*
X159684285Y-110113000D01*
X158398571Y-110970142D02*
X158541428Y-111041571D01*
X158827142Y-111041571D01*
X158970000Y-110970142D01*
X159041428Y-110827285D01*
X159041428Y-110255857D01*
X158970000Y-110113000D01*
X158827142Y-110041571D01*
X158541428Y-110041571D01*
X158398571Y-110113000D01*
X158327142Y-110255857D01*
X158327142Y-110398714D01*
X159041428Y-110541571D01*
X127642428Y-81525000D02*
X126928142Y-81525000D01*
X127785285Y-81953571D02*
X127285285Y-80453571D01*
X126785285Y-81953571D01*
X125642428Y-81953571D02*
X125642428Y-80453571D01*
X125642428Y-81882142D02*
X125785285Y-81953571D01*
X126071000Y-81953571D01*
X126213857Y-81882142D01*
X126285285Y-81810714D01*
X126356714Y-81667857D01*
X126356714Y-81239285D01*
X126285285Y-81096428D01*
X126213857Y-81025000D01*
X126071000Y-80953571D01*
X125785285Y-80953571D01*
X125642428Y-81025000D01*
X124285285Y-81953571D02*
X124285285Y-81167857D01*
X124356714Y-81025000D01*
X124499571Y-80953571D01*
X124785285Y-80953571D01*
X124928142Y-81025000D01*
X124285285Y-81882142D02*
X124428142Y-81953571D01*
X124785285Y-81953571D01*
X124928142Y-81882142D01*
X124999571Y-81739285D01*
X124999571Y-81596428D01*
X124928142Y-81453571D01*
X124785285Y-81382142D01*
X124428142Y-81382142D01*
X124285285Y-81310714D01*
X123785285Y-80953571D02*
X123213857Y-80953571D01*
X123571000Y-81953571D02*
X123571000Y-80667857D01*
X123499571Y-80525000D01*
X123356714Y-80453571D01*
X123213857Y-80453571D01*
X122713857Y-81953571D02*
X122713857Y-80953571D01*
X122713857Y-81239285D02*
X122642428Y-81096428D01*
X122571000Y-81025000D01*
X122428142Y-80953571D01*
X122285285Y-80953571D01*
X121142428Y-80953571D02*
X121142428Y-81953571D01*
X121785285Y-80953571D02*
X121785285Y-81739285D01*
X121713857Y-81882142D01*
X121571000Y-81953571D01*
X121356714Y-81953571D01*
X121213857Y-81882142D01*
X121142428Y-81810714D01*
X120428142Y-81953571D02*
X120428142Y-80953571D01*
X120428142Y-80453571D02*
X120499571Y-80525000D01*
X120428142Y-80596428D01*
X120356714Y-80525000D01*
X120428142Y-80453571D01*
X120428142Y-80596428D01*
X119928142Y-80953571D02*
X119356714Y-80953571D01*
X119713857Y-80453571D02*
X119713857Y-81739285D01*
X119642428Y-81882142D01*
X119499571Y-81953571D01*
X119356714Y-81953571D01*
X126856714Y-83717857D02*
X127356714Y-83717857D01*
X127356714Y-84503571D02*
X127356714Y-83003571D01*
X126642428Y-83003571D01*
X126285285Y-83003571D02*
X125428142Y-83003571D01*
X125856714Y-84503571D02*
X125856714Y-83003571D01*
X124999571Y-83146428D02*
X124928142Y-83075000D01*
X124785285Y-83003571D01*
X124428142Y-83003571D01*
X124285285Y-83075000D01*
X124213857Y-83146428D01*
X124142428Y-83289285D01*
X124142428Y-83432142D01*
X124213857Y-83646428D01*
X125071000Y-84503571D01*
X124142428Y-84503571D01*
X123642428Y-83003571D02*
X122713857Y-83003571D01*
X123213857Y-83575000D01*
X122999571Y-83575000D01*
X122856714Y-83646428D01*
X122785285Y-83717857D01*
X122713857Y-83860714D01*
X122713857Y-84217857D01*
X122785285Y-84360714D01*
X122856714Y-84432142D01*
X122999571Y-84503571D01*
X123428142Y-84503571D01*
X123571000Y-84432142D01*
X123642428Y-84360714D01*
X122142428Y-83146428D02*
X122071000Y-83075000D01*
X121928142Y-83003571D01*
X121571000Y-83003571D01*
X121428142Y-83075000D01*
X121356714Y-83146428D01*
X121285285Y-83289285D01*
X121285285Y-83432142D01*
X121356714Y-83646428D01*
X122213857Y-84503571D01*
X121285285Y-84503571D01*
X120642428Y-84503571D02*
X120642428Y-83003571D01*
X120642428Y-83717857D02*
X119785285Y-83717857D01*
X119785285Y-84503571D02*
X119785285Y-83003571D01*
X110870857Y-77482000D02*
X111013714Y-77410571D01*
X111228000Y-77410571D01*
X111442285Y-77482000D01*
X111585142Y-77624857D01*
X111656571Y-77767714D01*
X111728000Y-78053428D01*
X111728000Y-78267714D01*
X111656571Y-78553428D01*
X111585142Y-78696285D01*
X111442285Y-78839142D01*
X111228000Y-78910571D01*
X111085142Y-78910571D01*
X110870857Y-78839142D01*
X110799428Y-78767714D01*
X110799428Y-78267714D01*
X111085142Y-78267714D01*
X110156571Y-78910571D02*
X110156571Y-77410571D01*
X109299428Y-78910571D01*
X109299428Y-77410571D01*
X108585142Y-78910571D02*
X108585142Y-77410571D01*
X108228000Y-77410571D01*
X108013714Y-77482000D01*
X107870857Y-77624857D01*
X107799428Y-77767714D01*
X107728000Y-78053428D01*
X107728000Y-78267714D01*
X107799428Y-78553428D01*
X107870857Y-78696285D01*
X108013714Y-78839142D01*
X108228000Y-78910571D01*
X108585142Y-78910571D01*
X137667857Y-77410571D02*
X136739285Y-77410571D01*
X137239285Y-77982000D01*
X137025000Y-77982000D01*
X136882142Y-78053428D01*
X136810714Y-78124857D01*
X136739285Y-78267714D01*
X136739285Y-78624857D01*
X136810714Y-78767714D01*
X136882142Y-78839142D01*
X137025000Y-78910571D01*
X137453571Y-78910571D01*
X137596428Y-78839142D01*
X137667857Y-78767714D01*
X136310714Y-77410571D02*
X135810714Y-78910571D01*
X135310714Y-77410571D01*
M02*
