<?xml version="1.0" encoding="UTF-8" standalone="no"?>
<!-- Created with Inkscape (http://www.inkscape.org/) -->

<svg
   width="148.01202mm"
   height="48.892345mm"
   viewBox="0 0 148.01202 48.892345"
   version="1.1"
   id="svg5"
   inkscape:version="1.1.2 (b8e25be833, 2022-02-05)"
   sodipodi:docname="mms_logo.svg"
   xmlns:inkscape="http://www.inkscape.org/namespaces/inkscape"
   xmlns:sodipodi="http://sodipodi.sourceforge.net/DTD/sodipodi-0.dtd"
   xmlns="http://www.w3.org/2000/svg"
   xmlns:svg="http://www.w3.org/2000/svg">
  <sodipodi:namedview
     id="namedview7"
     pagecolor="#ffffff"
     bordercolor="#666666"
     borderopacity="1.0"
     inkscape:pageshadow="2"
     inkscape:pageopacity="0.0"
     inkscape:pagecheckerboard="0"
     inkscape:document-units="mm"
     showgrid="false"
     inkscape:zoom="0.98565476"
     inkscape:cx="145.5885"
     inkscape:cy="129.86291"
     inkscape:window-width="1852"
     inkscape:window-height="1016"
     inkscape:window-x="68"
     inkscape:window-y="27"
     inkscape:window-maximized="1"
     inkscape:current-layer="layer1"
     fit-margin-top="0"
     fit-margin-left="0"
     fit-margin-right="0"
     fit-margin-bottom="0" />
  <defs
     id="defs2" />
  <g
     inkscape:label="Layer 1"
     inkscape:groupmode="layer"
     id="layer1"
     transform="translate(-23.28486,-65.507585)">
    <text
       xml:space="preserve"
       style="font-style:normal;font-weight:normal;font-size:10.5833px;line-height:0;font-family:sans-serif;letter-spacing:0px;word-spacing:0px;fill:#ffffff;fill-opacity:1;stroke:none;stroke-width:0.264583"
       x="82.491112"
       y="77.90374"
       id="text1574"><tspan
         sodipodi:role="line"
         style="line-height:1.25;fill:#ffffff;stroke-width:0.264583"
         x="82.491112"
         y="77.90374"
         id="tspan1578">Mobile</tspan><tspan
         sodipodi:role="line"
         style="line-height:1.25;fill:#ffffff;stroke-width:0.264583"
         x="82.491112"
         y="91.132866"
         id="tspan1849">Measurement</tspan><tspan
         sodipodi:role="line"
         style="line-height:1.25;fill:#ffffff;stroke-width:0.264583"
         x="82.491112"
         y="104.36199"
         id="tspan1851">System</tspan></text>
    <g
       transform="matrix(0.95222981,0,0,0.95222981,-2008.4782,1090.5066)"
       id="g13322"
       style="fill:#ffffff">
      <path
         d="m 2178.3463,-1072.2122 -13.4867,13.5569 h -11.4429 l -10.897,10.8969 h 13.3306 v 13.5569 l 13.5569,-13.5569 h 11.3649 l 10.897,-10.8969 h -13.3228 z m -2.7457,6.5834 v 6.9735 h -6.9813 z m -21.0841,9.7191 h 7.6052 l -5.4133,5.4056 h -7.5975 z m 11.521,0 h 7.6052 l -5.4913,5.4056 h -7.5975 z m 11.443,0 h 7.6052 l -5.4133,5.4056 h -7.5975 z m -11.911,8.0733 -6.9734,6.9734 v -6.8954 z"
         style="fill:#ffffff;fill-rule:evenodd;stroke:none;stroke-width:0.999999"
         id="path13300" />
    </g>
  </g>
</svg>
